{
  "content": [
    {
      "id": 1,
      "modelNumber": "cd_mini11p",
      "modelName": "11th Mini Album 'SEVENTEENTH HEAVEN' (Set)",
      "unitCost": 62100,
      "thumbnail": "https://github.com/haaazzi/git-practice/blob/main/heaven%20set.png?raw=true",
      "quantity": 100,
      "createdAt": "2024-03-05T23:19:30"
    },
    {
      "id": 2,
      "modelNumber": "cd_mini11c",
      "modelName": "11th Mini Album 'SEVENTEENTH HEAVEN' Carat Ver. (Random)",
      "unitCost": 12600,
      "thumbnail": "https://github.com/haaazzi/git-practice/blob/main/heaven%20carat%20version.png?raw=true",
      "quantity": 100,
      "createdAt": "2024-03-06T08:10:39"
    },
    {
      "id": 3,
      "modelNumber": "cd_mini10p",
      "modelName": "10th Mini Album 'FML' (Set)",
      "unitCost": 57900,
      "thumbnail": "https://github.com/haaazzi/git-practice/blob/main/fml.png?raw=true",
      "quantity": 100,
      "createdAt": "2024-03-06T08:10:39"
    },
    {
      "id": 4,
      "modelNumber": "cd_mini10c",
      "modelName": "10th Mini Album 'FML' (CARAT Ver.)",
      "unitCost": 12300,
      "thumbnail": "https://github.com/haaazzi/git-practice/blob/main/Fml%20carat.png?raw=true",
      "quantity": 100,
      "createdAt": "2024-03-06T08:10:39"
    },
    {
      "id": 5,
      "modelNumber": "cd_mini10w",
      "modelName": "10th Mini Album 'FML' (Weverse Albums ver.)",
      "unitCost": 11500,
      "thumbnail": "https://github.com/haaazzi/git-practice/blob/main/fml%20weverse%20version.png?raw=true",
      "quantity": 100,
      "createdAt": "2024-03-06T08:10:39"
    },
    {
      "id": 6,
      "modelNumber": "cd_bss1s",
      "modelName": "부석순 1st Single Album 'SECOND WIND' (Special Ver.)",
      "unitCost": 59400,
      "thumbnail": "https://github.com/haaazzi/git-practice/blob/main/bss%20special.png?raw=true",
      "quantity": 100,
      "createdAt": "2024-03-06T08:10:39"
    },
    {
      "id": 7,
      "modelNumber": "cd_bss1p",
      "modelName": "부석순 1st Single Album 'SECOND WIND'",
      "unitCost": 17800,
      "thumbnail": "https://github.com/haaazzi/git-practice/blob/main/bss.png?raw=true",
      "quantity": 100,
      "createdAt": "2024-03-06T08:10:39"
    },
    {
      "id": 8,
      "modelNumber": "cd_4thp",
      "modelName": "4th Album 'Face the Sun' (Set)",
      "unitCost": 99500,
      "thumbnail": "https://github.com/haaazzi/git-practice/blob/main/facethesun.png?raw=true",
      "quantity": 100,
      "createdAt": "2024-03-06T08:24:16"
    },
    {
      "id": 9,
      "modelNumber": "cd_4thw",
      "modelName": "4th Album 'Face the Sun' (Weverse Albums ver.)",
      "unitCost": 8900,
      "thumbnail": "https://github.com/haaazzi/git-practice/blob/main/facethesun%20weverse.png?raw=true",
      "quantity": 100,
      "createdAt": "2024-03-06T08:24:16"
    }
  ],
  "pageable": {
    "sort": {
      "sorted": false,
      "unsorted": true,
      "empty": true
    },
    "pageNumber": 0,
    "pageSize": 9,
    "offset": 0,
    "paged": true,
    "unpaged": false
  },
  "totalPages": 4,
  "totalElements": 33,
  "last": false,
  "sort": {
    "sorted": false,
    "unsorted": true,
    "empty": true
  },
  "first": true,
  "size": 9,
  "number": 0,
  "numberOfElements": 9,
  "empty": false
}