{
  "content": [
    {
      "id": 11,
      "modelNumber": "cd_mini8p",
      "modelName": "8th Mini Album 'Your Choice' (SET)",
      "unitCost": 53700,
      "thumbnail": "https://github.com/haaazzi/git-practice/blob/main/yourchoice.jpeg?raw=true",
      "quantity": 100,
      "createdAt": "2024-03-06T08:24:16"
    }
  ],
  "pageable": {
    "sort": {
      "sorted": false,
      "unsorted": true,
      "empty": true
    },
    "pageNumber": 1,
    "pageSize": 10,
    "offset": 10,
    "paged": true,
    "unpaged": false
  },
  "totalPages": 2,
  "totalElements": 11,
  "last": true,
  "first": false,
  "size": 10,
  "number": 1,
  "sort": {
    "sorted": false,
    "unsorted": true,
    "empty": true
  },
  "numberOfElements": 1,
  "empty": false
}